{
  "project_info": {
    "project_number": "846938385288",
    "firebase_url": "https://auth-95806.firebaseio.com",
    "project_id": "auth-95806",
    "storage_bucket": "auth-95806.appspot.com"
  },
  "client": [
    {
      "client_info": {
        "mobilesdk_app_id": "1:846938385288:android:d82de6c38f98bfde",
        "android_client_info": {
          "package_name": "com.example.jenya.auth"
        }
      },
      "oauth_client": [
        {
          "client_id": "846938385288-204jafnejfi46luh6ubf571kf3lam4p0.apps.googleusercontent.com",
          "client_type": 1,
          "android_info": {
            "package_name": "com.example.jenya.auth",
            "certificate_hash": "a86d889b5690bbac4944ff3d60dd11b19969159f"
          }
        },
        {
          "client_id": "846938385288-28avqafjmpv7r0ta58oe7te7ki2vdu19.apps.googleusercontent.com",
          "client_type": 3
        }
      ],
      "api_key": [
        {
          "current_key": "AIzaSyC2GSyfYHRRPyVI-04lqNrzIER_FfKtHVY"
        }
      ],
      "services": {
        "analytics_service": {
          "status": 1
        },
        "appinvite_service": {
          "status": 2,
          "other_platform_oauth_client": [
            {
              "client_id": "846938385288-28avqafjmpv7r0ta58oe7te7ki2vdu19.apps.googleusercontent.com",
              "client_type": 3
            }
          ]
        },
        "ads_service": {
          "status": 2
        }
      }
    }
  ],
  "configuration_version": "1"
}